GestureReceiverCode/arty-z7-gesture-receiver/arty-z7-gesture-receiver.sim/sim_1/behav/xsim/wave.vcd
$date
   Mon Nov 24 21:22:42 2025
$end
$version
  2018.2
$end
$timescale
  1ps
$end
$scope module tb_top $end
$var reg 1 ! clk $end
$var reg 1 " rst_n $end
$var reg 1 # nrf_miso $end
$var reg 1 $ nrf_irq_n $end
$var wire 1 % nrf_mosi $end
$var wire 1 & nrf_sck $end
$var wire 1 ' nrf_csn $end
$var wire 1 ( nrf_ce $end
$var wire 48 ) data_received [47:0] $end
$var wire 1 * data_valid $end
$var integer 32 + i $end
$scope module dut $end
$var wire 1 , clk $end
$var wire 1 - rst_n $end
$var wire 1 . nrf_miso $end
$var wire 1 / nrf_irq_n $end
$var wire 1 % nrf_mosi $end
$var wire 1 & nrf_sck $end
$var wire 1 ' nrf_csn $end
$var wire 1 ( nrf_ce $end
$var wire 48 ) data_received [47:0] $end
$var wire 1 * data_valid $end
$var wire 1 0 w_spi_start $end
$var wire 1 1 w_spi_done $end
$var wire 8 2 w_spi_tx [7:0] $end
$var wire 8 3 w_spi_rx [7:0] $end
$scope module spi $end
$var wire 1 , clk $end
$var wire 1 - rst_n $end
$var wire 1 0 start $end
$var wire 8 2 tx_data [7:0] $end
$var wire 1 . miso $end
$var reg 1 4 mosi $end
$var reg 1 5 sck $end
$var reg 8 6 rx_data [7:0] $end
$var reg 1 7 done $end
$var reg 4 8 bit_count [3:0] $end
$var reg 8 9 tx_shift [7:0] $end
$var reg 8 : rx_shift [7:0] $end
$var reg 1 ; active $end
$upscope $end
$scope module nrf $end
$var wire 1 , clk $end
$var wire 1 - rst_n $end
$var wire 1 / nrf_irq_n $end
$var wire 8 3 spi_rx [7:0] $end
$var wire 1 1 spi_done $end
$var reg 1 < spi_start $end
$var reg 8 = spi_tx [7:0] $end
$var reg 1 > nrf_csn $end
$var reg 1 ? nrf_ce $end
$var reg 48 @ data_out [47:0] $end
$var reg 1 A data_valid $end
$var reg 3 B state [2:0] $end
$var reg 3 C byte_idx [2:0] $end
$var reg 16 D wait_cnt [15:0] $end
$var reg 48 E temp_data [47:0] $end
$var parameter 32 F IDLE [31:0] $end
$var parameter 32 G WAIT_INIT [31:0] $end
$var parameter 32 H RX_MODE [31:0] $end
$var parameter 32 I READ_CMD [31:0] $end
$var parameter 32 J READ_DATA [31:0] $end
$var parameter 32 K DONE [31:0] $end
$upscope $end
$upscope $end
$upscope $end
$enddefinitions $end
#0
$dumpvars
0!
0"
0#
1$
0%
0&
1'
0(
bx )
0*
bx +
0,
0-
0.
1/
00
01
bx 2
bx 3
04
05
bx 6
07
b0 8
bx 9
bx :
0;
0<
bx =
1>
0?
bx @
0A
b0 B
bx C
b0 D
bx E
b0 F
b1 G
b10 H
b11 I
b100 J
b101 K
$end
#10000
1!
1,
#20000
0!
0,
#30000
1!
1,
#40000
0!
0,
#50000
1!
1,
#60000
0!
0,
#70000
1!
1,
#80000
0!
0,
#90000
1!
1,
#100000
0!
1"
0,
1-
#110000
1!
1,
b1 D
#120000
0!
0,
#130000
1!
1,
b10 D
#140000
0!
0,
#150000
1!
1,
b11 D
#160000
0!
0,
#170000
1!
1,
b100 D
#180000
0!
0,
#190000
1!
1,
b101 D
#200000
0!
0,
#210000
1!
1,
b110 D
#220000
0!
0,
#230000
1!
1,
b111 D
#240000
0!
0,
#250000
1!
1,
b1000 D
#260000
0!
0,
#270000
1!
1,
b1001 D
#280000
0!
0,
#290000
1!
1,
b1010 D
#300000
0!
0,
#310000
1!
1,
b1011 D
#320000
0!
0,
#330000
1!
1,
b1100 D
#340000
0!
0,
#350000
1!
1,
b1101 D
#360000
0!
0,
#370000
1!
1,
b1110 D
#380000
0!
0,
#390000
1!
1,
b1111 D
#400000
0!
0,
#410000
1!
1,
b10000 D
#420000
0!
0,
#430000
1!
1,
b10001 D
#440000
0!
0,
#450000
1!
1,
b10010 D
#460000
0!
0,
#470000
1!
1,
b10011 D
#480000
0!
0,
#490000
1!
1,
b10100 D
#500000
0!
0,
#510000
1!
1,
b10101 D
#520000
0!
0,
#530000
1!
1,
b10110 D
#540000
0!
0,
#550000
1!
1,
b10111 D
#560000
0!
0,
#570000
1!
1,
b11000 D
#580000
0!
0,
#590000
1!
1,
b11001 D
#600000
0!
0,
#610000
1!
1,
b11010 D
#620000
0!
0,
#630000
1!
1,
b11011 D
#640000
0!
0,
#650000
1!
1,
b11100 D
#660000
0!
0,
#670000
1!
1,
b11101 D
#680000
0!
0,
#690000
1!
1,
b11110 D
#700000
0!
0,
#710000
1!
1,
b11111 D
#720000
0!
0,
#730000
1!
1,
b100000 D
#740000
0!
0,
#750000
1!
1,
b100001 D
#760000
0!
0,
#770000
1!
1,
b100010 D
#780000
0!
0,
#790000
1!
1,
b100011 D
#800000
0!
0,
#810000
1!
1,
b100100 D
#820000
0!
0,
#830000
1!
1,
b100101 D
#840000
0!
0,
#850000
1!
1,
b100110 D
#860000
0!
0,
#870000
1!
1,
b100111 D
#880000
0!
0,
#890000
1!
1,
b101000 D
#900000
0!
0,
#910000
1!
1,
b101001 D
#920000
0!
0,
#930000
1!
1,
b101010 D
#940000
0!
0,
#950000
1!
1,
b101011 D
#960000
0!
0,
#970000
1!
1,
b101100 D
#980000
0!
0,
#990000
1!
1,
b101101 D
#1000000
0!
0,
#1010000
1!
1,
b101110 D
#1020000
0!
0,
#1030000
1!
1,
b101111 D
#1040000
0!
0,
#1050000
1!
1,
b110000 D
#1060000
0!
0,
#1070000
1!
1,
b110001 D
#1080000
0!
0,
#1090000
1!
1,
b110010 D
#1100000
0!
0,
#1110000
1!
1,
b110011 D
#1120000
0!
0,
#1130000
1!
1,
b110100 D
#1140000
0!
0,
#1150000
1!
1,
b110101 D
#1160000
0!
0,
#1170000
1!
1,
b110110 D
#1180000
0!
0,
#1190000
1!
1,
b110111 D
#1200000
0!
0,
#1210000
1!
1,
b111000 D
#1220000
0!
0,
#1230000
1!
1,
b111001 D
#1240000
0!
0,
#1250000
1!
1,
b111010 D
#1260000
0!
0,
#1270000
1!
1,
b111011 D
#1280000
0!
0,
#1290000
1!
1,
b111100 D
#1300000
0!
0,
#1310000
1!
1,
b111101 D
#1320000
0!
0,
#1330000
1!
1,
b111110 D
#1340000
0!
0,
#1350000
1!
1,
b111111 D
#1360000
0!
0,
#1370000
1!
1,
b1000000 D
#1380000
0!
0,
#1390000
1!
1,
b1000001 D
#1400000
0!
0,
#1410000
1!
1,
b1000010 D
#1420000
0!
0,
#1430000
1!
1,
b1000011 D
#1440000
0!
0,
#1450000
1!
1,
b1000100 D
#1460000
0!
0,
#1470000
1!
1,
b1000101 D
#1480000
0!
0,
#1490000
1!
1,
b1000110 D
#1500000
0!
0,
#1510000
1!
1,
b1000111 D
#1520000
0!
0,
#1530000
1!
1,
b1001000 D
#1540000
0!
0,
#1550000
1!
1,
b1001001 D
#1560000
0!
0,
#1570000
1!
1,
b1001010 D
#1580000
0!
0,
#1590000
1!
1,
b1001011 D
#1600000
0!
0,
#1610000
1!
1,
b1001100 D
#1620000
0!
0,
#1630000
1!
1,
b1001101 D
#1640000
0!
0,
#1650000
1!
1,
b1001110 D
#1660000
0!
0,
#1670000
1!
1,
b1001111 D
#1680000
0!
0,
#1690000
1!
1,
b1010000 D
#1700000
0!
0,
#1710000
1!
1,
b1010001 D
#1720000
0!
0,
#1730000
1!
1,
b1010010 D
#1740000
0!
0,
#1750000
1!
1,
b1010011 D
#1760000
0!
0,
#1770000
1!
1,
b1010100 D
#1780000
0!
0,
#1790000
1!
1,
b1010101 D
#1800000
0!
0,
#1810000
1!
1,
b1010110 D
#1820000
0!
0,
#1830000
1!
1,
b1010111 D
#1840000
0!
0,
#1850000
1!
1,
b1011000 D
#1860000
0!
0,
#1870000
1!
1,
b1011001 D
#1880000
0!
0,
#1890000
1!
1,
b1011010 D
#1900000
0!
0,
#1910000
1!
1,
b1011011 D
#1920000
0!
0,
#1930000
1!
1,
b1011100 D
#1940000
0!
0,
#1950000
1!
1,
b1011101 D
#1960000
0!
0,
#1970000
1!
1,
b1011110 D
#1980000
0!
0,
#1990000
1!
1,
b1011111 D
#2000000
0!
0,
#2010000
1!
1,
b1100000 D
#2020000
0!
0,
#2030000
1!
1,
b1100001 D
#2040000
0!
0,
#2050000
1!
1,
b1100010 D
#2060000
0!
0,
#2070000
1!
1,
b1100011 D
#2080000
0!
0,
#2090000
1!
1,
b1100100 D
#2100000
0!
0,
#2110000
1!
1,
b1100101 D
#2120000
0!
0,
#2130000
1!
1,
b1100110 D
#2140000
0!
0,
#2150000
1!
1,
b1100111 D
#2160000
0!
0,
#2170000
1!
1,
b1101000 D
#2180000
0!
0,
#2190000
1!
1,
b1101001 D
#2200000
0!
0,
#2210000
1!
1,
b1101010 D
#2220000
0!
0,
#2230000
1!
1,
b1101011 D
#2240000
0!
0,
#2250000
1!
1,
b1101100 D
#2260000
0!
0,
#2270000
1!
1,
b1101101 D
#2280000
0!
0,
#2290000
1!
1,
b1101110 D
#2300000
0!
0,
#2310000
1!
1,
b1101111 D
#2320000
0!
0,
#2330000
1!
1,
b1110000 D
#2340000
0!
0,
#2350000
1!
1,
b1110001 D
#2360000
0!
0,
#2370000
1!
1,
b1110010 D
#2380000
0!
0,
#2390000
1!
1,
b1110011 D
#2400000
0!
0,
#2410000
1!
1,
b1110100 D
#2420000
0!
0,
#2430000
1!
1,
b1110101 D
#2440000
0!
0,
#2450000
1!
1,
b1110110 D
#2460000
0!
0,
#2470000
1!
1,
b1110111 D
#2480000
0!
0,
#2490000
1!
1,
b1111000 D
#2500000
0!
0,
#2510000
1!
1,
b1111001 D
#2520000
0!
0,
#2530000
1!
1,
b1111010 D
#2540000
0!
0,
#2550000
1!
1,
b1111011 D
#2560000
0!
0,
#2570000
1!
1,
b1111100 D
#2580000
0!
0,
#2590000
1!
1,
b1111101 D
#2600000
0!
0,
#2610000
1!
1,
b1111110 D
#2620000
0!
0,
#2630000
1!
1,
b1111111 D
#2640000
0!
0,
#2650000
1!
1,
b10000000 D
#2660000
0!
0,
#2670000
1!
1,
b10000001 D
#2680000
0!
0,
#2690000
1!
1,
b10000010 D
#2700000
0!
0,
#2710000
1!
1,
b10000011 D
#2720000
0!
0,
#2730000
1!
1,
b10000100 D
#2740000
0!
0,
#2750000
1!
1,
b10000101 D
#2760000
0!
0,
#2770000
1!
1,
b10000110 D
#2780000
0!
0,
#2790000
1!
1,
b10000111 D
#2800000
0!
0,
#2810000
1!
1,
b10001000 D
#2820000
0!
0,
#2830000
1!
1,
b10001001 D
#2840000
0!
0,
#2850000
1!
1,
b10001010 D
#2860000
0!
0,
#2870000
1!
1,
b10001011 D
#2880000
0!
0,
#2890000
1!
1,
b10001100 D
#2900000
0!
0,
#2910000
1!
1,
b10001101 D
#2920000
0!
0,
#2930000
1!
1,
b10001110 D
#2940000
0!
0,
#2950000
1!
1,
b10001111 D
#2960000
0!
0,
#2970000
1!
1,
b10010000 D
#2980000
0!
0,
#2990000
1!
1,
b10010001 D
#3000000
0!
0,
#3010000
1!
1,
b10010010 D
#3020000
0!
0,
#3030000
1!
1,
b10010011 D
#3040000
0!
0,
#3050000
1!
1,
b10010100 D
#3060000
0!
0,
#3070000
1!
1,
b10010101 D
#3080000
0!
0,
#3090000
1!
1,
b10010110 D
#3100000
0!
0,
#3110000
1!
1,
b10010111 D
#3120000
0!
0,
#3130000
1!
1,
b10011000 D
#3140000
0!
0,
#3150000
1!
1,
b10011001 D
#3160000
0!
0,
#3170000
1!
1,
b10011010 D
#3180000
0!
0,
#3190000
1!
1,
b10011011 D
#3200000
0!
0,
#3210000
1!
1,
b10011100 D
#3220000
0!
0,
#3230000
1!
1,
b10011101 D
#3240000
0!
0,
#3250000
1!
1,
b10011110 D
#3260000
0!
0,
#3270000
1!
1,
b10011111 D
#3280000
0!
0,
#3290000
1!
1,
b10100000 D
#3300000
0!
0,
#3310000
1!
1,
b10100001 D
#3320000
0!
0,
#3330000
1!
1,
b10100010 D
#3340000
0!
0,
#3350000
1!
1,
b10100011 D
#3360000
0!
0,
#3370000
1!
1,
b10100100 D
#3380000
0!
0,
#3390000
1!
1,
b10100101 D
#3400000
0!
0,
#3410000
1!
1,
b10100110 D
#3420000
0!
0,
#3430000
1!
1,
b10100111 D
#3440000
0!
0,
#3450000
1!
1,
b10101000 D
#3460000
0!
0,
#3470000
1!
1,
b10101001 D
#3480000
0!
0,
#3490000
1!
1,
b10101010 D
#3500000
0!
0,
#3510000
1!
1,
b10101011 D
#3520000
0!
0,
#3530000
1!
1,
b10101100 D
#3540000
0!
0,
#3550000
1!
1,
b10101101 D
#3560000
0!
0,
#3570000
1!
1,
b10101110 D
#3580000
0!
0,
#3590000
1!
1,
b10101111 D
#3600000
0!
0,
#3610000
1!
1,
b10110000 D
#3620000
0!
0,
#3630000
1!
1,
b10110001 D
#3640000
0!
0,
#3650000
1!
1,
b10110010 D
#3660000
0!
0,
#3670000
1!
1,
b10110011 D
#3680000
0!
0,
#3690000
1!
1,
b10110100 D
#3700000
0!
0,
#3710000
1!
1,
b10110101 D
#3720000
0!
0,
#3730000
1!
1,
b10110110 D
#3740000
0!
0,
#3750000
1!
1,
b10110111 D
#3760000
0!
0,
#3770000
1!
1,
b10111000 D
#3780000
0!
0,
#3790000
1!
1,
b10111001 D
#3800000
0!
0,
#3810000
1!
1,
b10111010 D
#3820000
0!
0,
#3830000
1!
1,
b10111011 D
#3840000
0!
0,
#3850000
1!
1,
b10111100 D
#3860000
0!
0,
#3870000
1!
1,
b10111101 D
#3880000
0!
0,
#3890000
1!
1,
b10111110 D
#3900000
0!
0,
#3910000
1!
1,
b10111111 D
#3920000
0!
0,
#3930000
1!
1,
b11000000 D
#3940000
0!
0,
#3950000
1!
1,
b11000001 D
#3960000
0!
0,
#3970000
1!
1,
b11000010 D
#3980000
0!
0,
#3990000
1!
1,
b11000011 D
#4000000
0!
0,
#4010000
1!
1,
b11000100 D
#4020000
0!
0,
#4030000
1!
1,
b11000101 D
#4040000
0!
0,
#4050000
1!
1,
b11000110 D
#4060000
0!
0,
#4070000
1!
1,
b11000111 D
#4080000
0!
0,
#4090000
1!
1,
b11001000 D
#4100000
0!
0,
#4110000
1!
1,
b11001001 D
#4120000
0!
0,
#4130000
1!
1,
b11001010 D
#4140000
0!
0,
#4150000
1!
1,
b11001011 D
#4160000
0!
0,
#4170000
1!
1,
b11001100 D
#4180000
0!
0,
#4190000
1!
1,
b11001101 D
#4200000
0!
0,
#4210000
1!
1,
b11001110 D
#4220000
0!
0,
#4230000
1!
1,
b11001111 D
#4240000
0!
0,
#4250000
1!
1,
b11010000 D
#4260000
0!
0,
#4270000
1!
1,
b11010001 D
#4280000
0!
0,
#4290000
1!
1,
b11010010 D
#4300000
0!
0,
#4310000
1!
1,
b11010011 D
#4320000
0!
0,
#4330000
1!
1,
b11010100 D
#4340000
0!
0,
#4350000
1!
1,
b11010101 D
#4360000
0!
0,
#4370000
1!
1,
b11010110 D
#4380000
0!
0,
#4390000
1!
1,
b11010111 D
#4400000
0!
0,
#4410000
1!
1,
b11011000 D
#4420000
0!
0,
#4430000
1!
1,
b11011001 D
#4440000
0!
0,
#4450000
1!
1,
b11011010 D
#4460000
0!
0,
#4470000
1!
1,
b11011011 D
#4480000
0!
0,
#4490000
1!
1,
b11011100 D
#4500000
0!
0,
#4510000
1!
1,
b11011101 D
#4520000
0!
0,
#4530000
1!
1,
b11011110 D
#4540000
0!
0,
#4550000
1!
1,
b11011111 D
#4560000
0!
0,
#4570000
1!
1,
b11100000 D
#4580000
0!
0,
#4590000
1!
1,
b11100001 D
#4600000
0!
0,
#4610000
1!
1,
b11100010 D
#4620000
0!
0,
#4630000
1!
1,
b11100011 D
#4640000
0!
0,
#4650000
1!
1,
b11100100 D
#4660000
0!
0,
#4670000
1!
1,
b11100101 D
#4680000
0!
0,
#4690000
1!
1,
b11100110 D
#4700000
0!
0,
#4710000
1!
1,
b11100111 D
#4720000
0!
0,
#4730000
1!
1,
b11101000 D
#4740000
0!
0,
#4750000
1!
1,
b11101001 D
#4760000
0!
0,
#4770000
1!
1,
b11101010 D
#4780000
0!
0,
#4790000
1!
1,
b11101011 D
#4800000
0!
0,
#4810000
1!
1,
b11101100 D
#4820000
0!
0,
#4830000
1!
1,
b11101101 D
#4840000
0!
0,
#4850000
1!
1,
b11101110 D
#4860000
0!
0,
#4870000
1!
1,
b11101111 D
#4880000
0!
0,
#4890000
1!
1,
b11110000 D
#4900000
0!
0,
#4910000
1!
1,
b11110001 D
#4920000
0!
0,
#4930000
1!
1,
b11110010 D
#4940000
0!
0,
#4950000
1!
1,
b11110011 D
#4960000
0!
0,
#4970000
1!
1,
b11110100 D
#4980000
0!
0,
#4990000
1!
1,
b11110101 D
#5000000
0!
0,
#5010000
1!
1,
b11110110 D
#5020000
0!
0,
#5030000
1!
1,
b11110111 D
#5040000
0!
0,
#5050000
1!
1,
b11111000 D
#5060000
0!
0,
#5070000
1!
1,
b11111001 D
#5080000
0!
0,
#5090000
1!
1,
b11111010 D
#5100000
0!
0,
#5110000
1!
1,
b11111011 D
#5120000
0!
0,
#5130000
1!
1,
b11111100 D
#5140000
0!
0,
#5150000
1!
1,
b11111101 D
#5160000
0!
0,
#5170000
1!
1,
b11111110 D
#5180000
0!
0,
#5190000
1!
1,
b11111111 D
#5200000
0!
0,
#5210000
1!
1,
b100000000 D
#5220000
0!
0,
#5230000
1!
1,
b100000001 D
#5240000
0!
0,
#5250000
1!
1,
b100000010 D
#5260000
0!
0,
#5270000
1!
1,
b100000011 D
#5280000
0!
0,
#5290000
1!
1,
b100000100 D
#5300000
0!
0,
#5310000
1!
1,
b100000101 D
#5320000
0!
0,
#5330000
1!
1,
b100000110 D
#5340000
0!
0,
#5350000
1!
1,
b100000111 D
#5360000
0!
0,
#5370000
1!
1,
b100001000 D
#5380000
0!
0,
#5390000
1!
1,
b100001001 D
#5400000
0!
0,
#5410000
1!
1,
b100001010 D
#5420000
0!
0,
#5430000
1!
1,
b100001011 D
#5440000
0!
0,
#5450000
1!
1,
b100001100 D
#5460000
0!
0,
#5470000
1!
1,
b100001101 D
#5480000
0!
0,
#5490000
1!
1,
b100001110 D
#5500000
0!
0,
#5510000
1!
1,
b100001111 D
#5520000
0!
0,
#5530000
1!
1,
b100010000 D
#5540000
0!
0,
#5550000
1!
1,
b100010001 D
#5560000
0!
0,
#5570000
1!
1,
b100010010 D
#5580000
0!
0,
#5590000
1!
1,
b100010011 D
#5600000
0!
0,
#5610000
1!
1,
b100010100 D
#5620000
0!
0,
#5630000
1!
1,
b100010101 D
#5640000
0!
0,
#5650000
1!
1,
b100010110 D
#5660000
0!
0,
#5670000
1!
1,
b100010111 D
#5680000
0!
0,
#5690000
1!
1,
b100011000 D
#5700000
0!
0,
#5710000
1!
1,
b100011001 D
#5720000
0!
0,
#5730000
1!
1,
b100011010 D
#5740000
0!
0,
#5750000
1!
1,
b100011011 D
#5760000
0!
0,
#5770000
1!
1,
b100011100 D
#5780000
0!
0,
#5790000
1!
1,
b100011101 D
#5800000
0!
0,
#5810000
1!
1,
b100011110 D
#5820000
0!
0,
#5830000
1!
1,
b100011111 D
#5840000
0!
0,
#5850000
1!
1,
b100100000 D
#5860000
0!
0,
#5870000
1!
1,
b100100001 D
#5880000
0!
0,
#5890000
1!
1,
b100100010 D
#5900000
0!
0,
#5910000
1!
1,
b100100011 D
#5920000
0!
0,
#5930000
1!
1,
b100100100 D
#5940000
0!
0,
#5950000
1!
1,
b100100101 D
#5960000
0!
0,
#5970000
1!
1,
b100100110 D
#5980000
0!
0,
#5990000
1!
1,
b100100111 D
#6000000
0!
0,
#6010000
1!
1,
b100101000 D
#6020000
0!
0,
#6030000
1!
1,
b100101001 D
#6040000
0!
0,
#6050000
1!
1,
b100101010 D
#6060000
0!
0,
#6070000
1!
1,
b100101011 D
#6080000
0!
0,
#6090000
1!
1,
b100101100 D
#6100000
0!
0,
#6110000
1!
1,
b100101101 D
#6120000
0!
0,
#6130000
1!
1,
b100101110 D
#6140000
0!
0,
#6150000
1!
1,
b100101111 D
#6160000
0!
0,
#6170000
1!
1,
b100110000 D
#6180000
0!
0,
#6190000
1!
1,
b100110001 D
#6200000
0!
0,
#6210000
1!
1,
b100110010 D
#6220000
0!
0,
#6230000
1!
1,
b100110011 D
#6240000
0!
0,
#6250000
1!
1,
b100110100 D
#6260000
0!
0,
#6270000
1!
1,
b100110101 D
#6280000
0!
0,
#6290000
1!
1,
b100110110 D
#6300000
0!
0,
#6310000
1!
1,
b100110111 D
#6320000
0!
0,
#6330000
1!
1,
b100111000 D
#6340000
0!
0,
#6350000
1!
1,
b100111001 D
#6360000
0!
0,
#6370000
1!
1,
b100111010 D
#6380000
0!
0,
#6390000
1!
1,
b100111011 D
#6400000
0!
0,
#6410000
1!
1,
b100111100 D
#6420000
0!
0,
#6430000
1!
1,
b100111101 D
#6440000
0!
0,
#6450000
1!
1,
b100111110 D
#6460000
0!
0,
#6470000
1!
1,
b100111111 D
#6480000
0!
0,
#6490000
1!
1,
b101000000 D
#6500000
0!
0,
#6510000
1!
1,
b101000001 D
#6520000
0!
0,
#6530000
1!
1,
b101000010 D
#6540000
0!
0,
#6550000
1!
1,
b101000011 D
#6560000
0!
0,
#6570000
1!
1,
b101000100 D
#6580000
0!
0,
#6590000
1!
1,
b101000101 D
#6600000
0!
0,
#6610000
1!
1,
b101000110 D
#6620000
0!
0,
#6630000
1!
1,
b101000111 D
#6640000
0!
0,
#6650000
1!
1,
b101001000 D
#6660000
0!
0,
#6670000
1!
1,
b101001001 D
#6680000
0!
0,
#6690000
1!
1,
b101001010 D
#6700000
0!
0,
#6710000
1!
1,
b101001011 D
#6720000
0!
0,
#6730000
1!
1,
b101001100 D
#6740000
0!
0,
#6750000
1!
1,
b101001101 D
#6760000
0!
0,
#6770000
1!
1,
b101001110 D
#6780000
0!
0,
#6790000
1!
1,
b101001111 D
#6800000
0!
0,
#6810000
1!
1,
b101010000 D
#6820000
0!
0,
#6830000
1!
1,
b101010001 D
#6840000
0!
0,
#6850000
1!
1,
b101010010 D
#6860000
0!
0,
#6870000
1!
1,
b101010011 D
#6880000
0!
0,
#6890000
1!
1,
b101010100 D
#6900000
0!
0,
#6910000
1!
1,
b101010101 D
#6920000
0!
0,
#6930000
1!
1,
b101010110 D
#6940000
0!
0,
#6950000
1!
1,
b101010111 D
#6960000
0!
0,
#6970000
1!
1,
b101011000 D
#6980000
0!
0,
#6990000
1!
1,
b101011001 D
#7000000
0!
0,
#7010000
1!
1,
b101011010 D
#7020000
0!
0,
#7030000
1!
1,
b101011011 D
#7040000
0!
0,
#7050000
1!
1,
b101011100 D
#7060000
0!
0,
#7070000
1!
1,
b101011101 D
#7080000
0!
0,
#7090000
1!
1,
b101011110 D
#7100000
0!
0,
#7110000
1!
1,
b101011111 D
#7120000
0!
0,
#7130000
1!
1,
b101100000 D
#7140000
0!
0,
#7150000
1!
1,
b101100001 D
#7160000
0!
0,
#7170000
1!
1,
b101100010 D
#7180000
0!
0,
#7190000
1!
1,
b101100011 D
#7200000
0!
0,
#7210000
1!
1,
b101100100 D
#7220000
0!
0,
#7230000
1!
1,
b101100101 D
#7240000
0!
0,
#7250000
1!
1,
b101100110 D
#7260000
0!
0,
#7270000
1!
1,
b101100111 D
#7280000
0!
0,
#7290000
1!
1,
b101101000 D
#7300000
0!
0,
#7310000
1!
1,
b101101001 D
#7320000
0!
0,
#7330000
1!
1,
b101101010 D
#7340000
0!
0,
#7350000
1!
1,
b101101011 D
#7360000
0!
0,
#7370000
1!
1,
b101101100 D
#7380000
0!
0,
#7390000
1!
1,
b101101101 D
#7400000
0!
0,
#7410000
1!
1,
b101101110 D
#7420000
0!
0,
#7430000
1!
1,
b101101111 D
#7440000
0!
0,
#7450000
1!
1,
b101110000 D
#7460000
0!
0,
#7470000
1!
1,
b101110001 D
#7480000
0!
0,
#7490000
1!
1,
b101110010 D
#7500000
0!
0,
#7510000
1!
1,
b101110011 D
#7520000
0!
0,
#7530000
1!
1,
b101110100 D
#7540000
0!
0,
#7550000
1!
1,
b101110101 D
#7560000
0!
0,
#7570000
1!
1,
b101110110 D
#7580000
0!
0,
#7590000
1!
1,
b101110111 D
#7600000
0!
0,
#7610000
1!
1,
b101111000 D
#7620000
0!
0,
#7630000
1!
1,
b101111001 D
#7640000
0!
0,
#7650000
1!
1,
b101111010 D
#7660000
0!
0,
#7670000
1!
1,
b101111011 D
#7680000
0!
0,
#7690000
1!
1,
b101111100 D
#7700000
0!
0,
#7710000
1!
1,
b101111101 D
#7720000
0!
0,
#7730000
1!
1,
b101111110 D
#7740000
0!
0,
#7750000
1!
1,
b101111111 D
#7760000
0!
0,
#7770000
1!
1,
b110000000 D
#7780000
0!
0,
#7790000
1!
1,
b110000001 D
#7800000
0!
0,
#7810000
1!
1,
b110000010 D
#7820000
0!
0,
#7830000
1!
1,
b110000011 D
#7840000
0!
0,
#7850000
1!
1,
b110000100 D
#7860000
0!
0,
#7870000
1!
1,
b110000101 D
#7880000
0!
0,
#7890000
1!
1,
b110000110 D
#7900000
0!
0,
#7910000
1!
1,
b110000111 D
#7920000
0!
0,
#7930000
1!
1,
b110001000 D
#7940000
0!
0,
#7950000
1!
1,
b110001001 D
#7960000
0!
0,
#7970000
1!
1,
b110001010 D
#7980000
0!
0,
#7990000
1!
1,
b110001011 D
#8000000
0!
0,
#8010000
1!
1,
b110001100 D
#8020000
0!
0,
#8030000
1!
1,
b110001101 D
#8040000
0!
0,
#8050000
1!
1,
b110001110 D
#8060000
0!
0,
#8070000
1!
1,
b110001111 D
#8080000
0!
0,
#8090000
1!
1,
b110010000 D
#8100000
0!
0,
#8110000
1!
1,
b110010001 D
#8120000
0!
0,
#8130000
1!
1,
b110010010 D
#8140000
0!
0,
#8150000
1!
1,
b110010011 D
#8160000
0!
0,
#8170000
1!
1,
b110010100 D
#8180000
0!
0,
#8190000
1!
1,
b110010101 D
#8200000
0!
0,
#8210000
1!
1,
b110010110 D
#8220000
0!
0,
#8230000
1!
1,
b110010111 D
#8240000
0!
0,
#8250000
1!
1,
b110011000 D
#8260000
0!
0,
#8270000
1!
1,
b110011001 D
#8280000
0!
0,
#8290000
1!
1,
b110011010 D
#8300000
0!
0,
#8310000
1!
1,
b110011011 D
#8320000
0!
0,
#8330000
1!
1,
b110011100 D
#8340000
0!
0,
#8350000
1!
1,
b110011101 D
#8360000
0!
0,
#8370000
1!
1,
b110011110 D
#8380000
0!
0,
#8390000
1!
1,
b110011111 D
#8400000
0!
0,
#8410000
1!
1,
b110100000 D
#8420000
0!
0,
#8430000
1!
1,
b110100001 D
#8440000
0!
0,
#8450000
1!
1,
b110100010 D
#8460000
0!
0,
#8470000
1!
1,
b110100011 D
#8480000
0!
0,
#8490000
1!
1,
b110100100 D
#8500000
0!
0,
#8510000
1!
1,
b110100101 D
#8520000
0!
0,
#8530000
1!
1,
b110100110 D
#8540000
0!
0,
#8550000
1!
1,
b110100111 D
#8560000
0!
0,
#8570000
1!
1,
b110101000 D
#8580000
0!
0,
#8590000
1!
1,
b110101001 D
#8600000
0!
0,
#8610000
1!
1,
b110101010 D
#8620000
0!
0,
#8630000
1!
1,
b110101011 D
#8640000
0!
0,
#8650000
1!
1,
b110101100 D
#8660000
0!
0,
#8670000
1!
1,
b110101101 D
#8680000
0!
0,
#8690000
1!
1,
b110101110 D
#8700000
0!
0,
#8710000
1!
1,
b110101111 D
#8720000
0!
0,
#8730000
1!
1,
b110110000 D
#8740000
0!
0,
#8750000
1!
1,
b110110001 D
#8760000
0!
0,
#8770000
1!
1,
b110110010 D
#8780000
0!
0,
#8790000
1!
1,
b110110011 D
#8800000
0!
0,
#8810000
1!
1,
b110110100 D
#8820000
0!
0,
#8830000
1!
1,
b110110101 D
#8840000
0!
0,
#8850000
1!
1,
b110110110 D
#8860000
0!
0,
#8870000
1!
1,
b110110111 D
#8880000
0!
0,
#8890000
1!
1,
b110111000 D
#8900000
0!
0,
#8910000
1!
1,
b110111001 D
#8920000
0!
0,
#8930000
1!
1,
b110111010 D
#8940000
0!
0,
#8950000
1!
1,
b110111011 D
#8960000
0!
0,
#8970000
1!
1,
b110111100 D
#8980000
0!
0,
#8990000
1!
1,
b110111101 D
#9000000
0!
0,
#9010000
1!
1,
b110111110 D
#9020000
0!
0,
#9030000
1!
1,
b110111111 D
#9040000
0!
0,
#9050000
1!
1,
b111000000 D
#9060000
0!
0,
#9070000
1!
1,
b111000001 D
#9080000
0!
0,
#9090000
1!
1,
b111000010 D
#9100000
0!
0,
#9110000
1!
1,
b111000011 D
#9120000
0!
0,
#9130000
1!
1,
b111000100 D
#9140000
0!
0,
#9150000
1!
1,
b111000101 D
#9160000
0!
0,
#9170000
1!
1,
b111000110 D
#9180000
0!
0,
#9190000
1!
1,
b111000111 D
#9200000
0!
0,
#9210000
1!
1,
b111001000 D
#9220000
0!
0,
#9230000
1!
1,
b111001001 D
#9240000
0!
0,
#9250000
1!
1,
b111001010 D
#9260000
0!
0,
#9270000
1!
1,
b111001011 D
#9280000
0!
0,
#9290000
1!
1,
b111001100 D
#9300000
0!
0,
#9310000
1!
1,
b111001101 D
#9320000
0!
0,
#9330000
1!
1,
b111001110 D
#9340000
0!
0,
#9350000
1!
1,
b111001111 D
#9360000
0!
0,
#9370000
1!
1,
b111010000 D
#9380000
0!
0,
#9390000
1!
1,
b111010001 D
#9400000
0!
0,
#9410000
1!
1,
b111010010 D
#9420000
0!
0,
#9430000
1!
1,
b111010011 D
#9440000
0!
0,
#9450000
1!
1,
b111010100 D
#9460000
0!
0,
#9470000
1!
1,
b111010101 D
#9480000
0!
0,
#9490000
1!
1,
b111010110 D
#9500000
0!
0,
